Reference, Value, Footprint, Datasheet
"U1","LM2576HVT-5","LM2576:LM2576-LM2576","http://www.ti.com/lit/ds/symlink/lm2576.pdf"
"L1","100mH","Inductors_THT:L_Axial_L14.5mm_D5.8mm_P20.32mm_Horizontal_Fastron_HBCC","~"
"J1","USB_A","Connectors:USB_A_Vertical",""
"F4","Fuse","Fuse_Holders_and_Fuses:Fuseholder5x20_horiz_open_inline_Type-I","~"
"F1","Polyfuse","Fuse:Fuse_Littlefuse_395Series","~"
"D1","1N5822","Diode_THT:D_DO-201_P15.24mm_Horizontal","~"
"C1","100nF","Capacitors_THT:C_Disc_D3.8mm_W2.6mm_P2.50mm","~"
"C7","100µF","Capacitor_THT:CP_Radial_D12.5mm_P7.50mm","~"
"C4","100µF","Capacitor_THT:CP_Radial_D12.5mm_P7.50mm","~"
"R1","75K","Resistors_THT:R_Axial_DIN0207_L6.3mm_D2.5mm_P10.16mm_Horizontal","~"
"R2","49.9K","Resistors_THT:R_Axial_DIN0207_L6.3mm_D2.5mm_P10.16mm_Horizontal","~"
"R5","75K","Resistors_THT:R_Axial_DIN0207_L6.3mm_D2.5mm_P10.16mm_Horizontal","~"
"R6","49.9K","Resistors_THT:R_Axial_DIN0207_L6.3mm_D2.5mm_P10.16mm_Horizontal","~"
"J3","USB_A","Connectors:USB_A_Vertical",""
"R9","75K","Resistors_THT:R_Axial_DIN0207_L6.3mm_D2.5mm_P10.16mm_Horizontal","~"
"R10","49.9K","Resistors_THT:R_Axial_DIN0207_L6.3mm_D2.5mm_P10.16mm_Horizontal","~"
"R13","75K","Resistors_THT:R_Axial_DIN0207_L6.3mm_D2.5mm_P10.16mm_Horizontal","~"
"R14","49.9K","Resistors_THT:R_Axial_DIN0207_L6.3mm_D2.5mm_P10.16mm_Horizontal","~"
"J5","USB_A","Connectors:USB_A_Vertical",""
"R17","75K","Resistors_THT:R_Axial_DIN0207_L6.3mm_D2.5mm_P10.16mm_Horizontal","~"
"R18","49.9K","Resistors_THT:R_Axial_DIN0207_L6.3mm_D2.5mm_P10.16mm_Horizontal","~"
"R21","75K","Resistors_THT:R_Axial_DIN0207_L6.3mm_D2.5mm_P10.16mm_Horizontal","~"
"R22","49.9K","Resistors_THT:R_Axial_DIN0207_L6.3mm_D2.5mm_P10.16mm_Horizontal","~"
"J7","USB_A","Connectors:USB_A_Vertical",""
"R25","75K","Resistors_THT:R_Axial_DIN0207_L6.3mm_D2.5mm_P10.16mm_Horizontal","~"
"R26","49.9K","Resistors_THT:R_Axial_DIN0207_L6.3mm_D2.5mm_P10.16mm_Horizontal","~"
"R29","75K","Resistors_THT:R_Axial_DIN0207_L6.3mm_D2.5mm_P10.16mm_Horizontal","~"
"R30","49.9K","Resistors_THT:R_Axial_DIN0207_L6.3mm_D2.5mm_P10.16mm_Horizontal","~"
"J2","USB_A","Connectors:USB_A_Vertical",""
"R3","75K","Resistors_THT:R_Axial_DIN0207_L6.3mm_D2.5mm_P10.16mm_Horizontal","~"
"R4","49.9K","Resistors_THT:R_Axial_DIN0207_L6.3mm_D2.5mm_P10.16mm_Horizontal","~"
"R7","75K","Resistors_THT:R_Axial_DIN0207_L6.3mm_D2.5mm_P10.16mm_Horizontal","~"
"R8","49.9K","Resistors_THT:R_Axial_DIN0207_L6.3mm_D2.5mm_P10.16mm_Horizontal","~"
"J4","USB_A","Connectors:USB_A_Vertical",""
"R11","75K","Resistors_THT:R_Axial_DIN0207_L6.3mm_D2.5mm_P10.16mm_Horizontal","~"
"R12","49.9K","Resistors_THT:R_Axial_DIN0207_L6.3mm_D2.5mm_P10.16mm_Horizontal","~"
"R15","75K","Resistors_THT:R_Axial_DIN0207_L6.3mm_D2.5mm_P10.16mm_Horizontal","~"
"R16","49.9K","Resistors_THT:R_Axial_DIN0207_L6.3mm_D2.5mm_P10.16mm_Horizontal","~"
"J6","USB_A","Connectors:USB_A_Vertical",""
"R19","75K","Resistors_THT:R_Axial_DIN0207_L6.3mm_D2.5mm_P10.16mm_Horizontal","~"
"R20","49.9K","Resistors_THT:R_Axial_DIN0207_L6.3mm_D2.5mm_P10.16mm_Horizontal","~"
"R23","75K","Resistors_THT:R_Axial_DIN0207_L6.3mm_D2.5mm_P10.16mm_Horizontal","~"
"R24","49.9K","Resistors_THT:R_Axial_DIN0207_L6.3mm_D2.5mm_P10.16mm_Horizontal","~"
"J8","USB_A","Connectors:USB_A_Vertical",""
"R27","75K","Resistors_THT:R_Axial_DIN0207_L6.3mm_D2.5mm_P10.16mm_Horizontal","~"
"R28","49.9K","Resistors_THT:R_Axial_DIN0207_L6.3mm_D2.5mm_P10.16mm_Horizontal","~"
"R31","75K","Resistors_THT:R_Axial_DIN0207_L6.3mm_D2.5mm_P10.16mm_Horizontal","~"
"R32","49.9K","Resistors_THT:R_Axial_DIN0207_L6.3mm_D2.5mm_P10.16mm_Horizontal","~"
"D11","LED","LED_THT:LED_D3.0mm","~"
"R34","490","Resistors_THT:R_Axial_DIN0207_L6.3mm_D2.5mm_P10.16mm_Horizontal","~"
"U2","LM2576HVT-5","LM2576:LM2576-LM2576","http://www.ti.com/lit/ds/symlink/lm2576.pdf"
"L2","100mH","Inductors_THT:L_Axial_L14.5mm_D5.8mm_P20.32mm_Horizontal_Fastron_HBCC","~"
"F2","Polyfuse","Fuse:Fuse_Littlefuse_395Series","~"
"D10","1N5822","Diode_THT:D_DO-201_P15.24mm_Horizontal","~"
"C2","100nF","Capacitors_THT:C_Disc_D3.8mm_W2.6mm_P2.50mm","~"
"C5","100µF","Capacitor_THT:CP_Radial_D12.5mm_P7.50mm","~"
"C3","100µF","Capacitor_THT:CP_Radial_D12.5mm_P7.50mm","~"
"D12","LED","LED_THT:LED_D3.0mm","~"
"R35","490","Resistors_THT:R_Axial_DIN0207_L6.3mm_D2.5mm_P10.16mm_Horizontal","~"
"J9","Conn_01x02","TerminalBlock:TerminalBlock_Altech_AK300-2_P5.00mm","~"
"D4","1N5822","Diode_THT:D_DO-201_P15.24mm_Horizontal","~"
"D2","1N5822","Diode_THT:D_DO-201_P15.24mm_Horizontal","~"
"D9","1N5822","Diode_THT:D_DO-201_P15.24mm_Horizontal","~"
"D3","1N5822","Diode_THT:D_DO-201_P15.24mm_Horizontal","~"
"LOGO1","OPEN_HARDWARE_2","adafruit:adafruit-OSHWLOGO_TOL_0.2","~"
