EESchema Schematic File Version 4
LIBS:smartphoneLoader-cache
EELAYER 29 0
EELAYER END
$Descr A4 11693 8268
encoding utf-8
Sheet 1 1
Title ""
Date ""
Rev ""
Comp ""
Comment1 ""
Comment2 ""
Comment3 ""
Comment4 ""
$EndDescr
$Comp
L dc-dc:LM2576HVT-5 U1
U 1 1 5C2FB728
P 2250 1200
F 0 "U1" H 2250 1567 50  0000 C CNN
F 1 "LM2576HVT-5" H 2250 1476 50  0000 C CNN
F 2 "LM2576:LM2576-LM2576" H 2250 950 50  0001 L CIN
F 3 "http://www.ti.com/lit/ds/symlink/lm2576.pdf" H 2250 1200 50  0001 C CNN
	1    2250 1200
	1    0    0    -1  
$EndComp
$Comp
L device:L L1
U 1 1 5C2FC0F0
P 3050 1300
F 0 "L1" V 3240 1300 50  0000 C CNN
F 1 "100mH" V 3149 1300 50  0000 C CNN
F 2 "Inductors_THT:L_Toroid_Vertical_L19.1mm_W8.1mm_P7.10mm_Bourns_5700" H 3050 1300 50  0001 C CNN
F 3 "~" H 3050 1300 50  0001 C CNN
	1    3050 1300
	0    -1   -1   0   
$EndComp
$Comp
L device:Fuse F4
U 1 1 5C2FDC7E
P 1200 7000
F 0 "F4" H 1260 7046 50  0000 L CNN
F 1 "Fuse" H 1260 6955 50  0000 L CNN
F 2 "Fuse_Holders_and_Fuses:Fuseholder5x20_horiz_open_inline_Type-I" V 1130 7000 50  0001 C CNN
F 3 "~" H 1200 7000 50  0001 C CNN
	1    1200 7000
	0    1    1    0   
$EndComp
$Comp
L device:Polyfuse F1
U 1 1 5C2FE442
P 3450 1300
F 0 "F1" V 3225 1300 50  0000 C CNN
F 1 "Polyfuse" V 3316 1300 50  0000 C CNN
F 2 "Fuse:Fuse_Littlefuse_395Series" H 3500 1100 50  0001 L CNN
F 3 "~" H 3450 1300 50  0001 C CNN
	1    3450 1300
	0    1    1    0   
$EndComp
$Comp
L device:D_Schottky D1
U 1 1 5C2FE7FB
P 2850 1450
F 0 "D1" V 2804 1529 50  0000 L CNN
F 1 "1N5822" V 2895 1529 50  0000 L CNN
F 2 "Diode_THT:D_DO-201_P15.24mm_Horizontal" H 2850 1450 50  0001 C CNN
F 3 "~" H 2850 1450 50  0001 C CNN
	1    2850 1450
	0    1    1    0   
$EndComp
$Comp
L device:C C1
U 1 1 5C3027FF
P 1150 1600
F 0 "C1" H 1265 1646 50  0000 L CNN
F 1 "100nF" H 1265 1555 50  0000 L CNN
F 2 "Capacitors_THT:C_Disc_D3.8mm_W2.6mm_P2.50mm" H 1188 1450 50  0001 C CNN
F 3 "~" H 1150 1600 50  0001 C CNN
	1    1150 1600
	1    0    0    -1  
$EndComp
$Comp
L device:CP C7
U 1 1 5C302CE9
P 3250 1650
F 0 "C7" H 3368 1696 50  0000 L CNN
F 1 "100µF" H 3368 1605 50  0000 L CNN
F 2 "Capacitor_THT:CP_Radial_D12.5mm_P7.50mm" H 3288 1500 50  0001 C CNN
F 3 "~" H 3250 1650 50  0001 C CNN
	1    3250 1650
	1    0    0    -1  
$EndComp
$Comp
L device:CP C4
U 1 1 5C3037B2
P 1450 1450
F 0 "C4" H 1568 1496 50  0000 L CNN
F 1 "100µF" H 1568 1405 50  0000 L CNN
F 2 "Capacitor_THT:CP_Radial_D12.5mm_P7.50mm" H 1488 1300 50  0001 C CNN
F 3 "~" H 1450 1450 50  0001 C CNN
	1    1450 1450
	1    0    0    -1  
$EndComp
$Comp
L power:GND #PWR02
U 1 1 5C30427C
P 950 1900
F 0 "#PWR02" H 950 1650 50  0001 C CNN
F 1 "GND" V 955 1772 50  0000 R CNN
F 2 "" H 950 1900 50  0001 C CNN
F 3 "" H 950 1900 50  0001 C CNN
	1    950  1900
	0    1    1    0   
$EndComp
Wire Wire Line
	1750 1100 1450 1100
Wire Wire Line
	1450 1100 1450 1300
Wire Wire Line
	2750 1300 2850 1300
Wire Wire Line
	2850 1300 2900 1300
Connection ~ 2850 1300
Wire Wire Line
	2750 1100 3250 1100
Wire Wire Line
	1450 1100 1150 1100
Wire Wire Line
	1150 1100 1150 1450
Connection ~ 1450 1100
$Comp
L power:+12V #PWR01
U 1 1 5C311956
P 1000 1100
F 0 "#PWR01" H 1000 950 50  0001 C CNN
F 1 "+12V" V 1015 1228 50  0000 L CNN
F 2 "" H 1000 1100 50  0001 C CNN
F 3 "" H 1000 1100 50  0001 C CNN
	1    1000 1100
	0    -1   -1   0   
$EndComp
Text Notes 650  650  0    50   ~ 0
chargingSocket1\n
Wire Wire Line
	3600 1300 3750 1300
Text GLabel 3800 1300 2    50   Input ~ 0
chargingSocket1
Wire Notes Line
	650  650  650  2000
Wire Notes Line
	650  2000 4500 2000
Wire Notes Line
	4500 2000 4500 650 
Wire Notes Line
	4500 650  650  650 
$Comp
L conn:USB_A J3
U 1 1 5C3661B8
P 4550 3150
F 0 "J3" H 4320 3047 50  0000 R CNN
F 1 "USB_A" H 4320 3138 50  0000 R CNN
F 2 "Connectors:USB_A_Vertical" H 4700 3100 50  0001 C CNN
F 3 "" H 4700 3100 50  0001 C CNN
	1    4550 3150
	-1   0    0    1   
$EndComp
$Comp
L device:R R9
U 1 1 5C3661C2
P 3600 3400
F 0 "R9" H 3670 3446 50  0000 L CNN
F 1 "75K" H 3670 3355 50  0000 L CNN
F 2 "Resistors_THT:R_Axial_DIN0207_L6.3mm_D2.5mm_P10.16mm_Horizontal" V 3530 3400 50  0001 C CNN
F 3 "~" H 3600 3400 50  0001 C CNN
	1    3600 3400
	1    0    0    -1  
$EndComp
$Comp
L device:R R10
U 1 1 5C3661CC
P 3600 3800
F 0 "R10" H 3670 3846 50  0000 L CNN
F 1 "49.9K" H 3670 3755 50  0000 L CNN
F 2 "Resistors_THT:R_Axial_DIN0207_L6.3mm_D2.5mm_P10.16mm_Horizontal" V 3530 3800 50  0001 C CNN
F 3 "~" H 3600 3800 50  0001 C CNN
	1    3600 3800
	1    0    0    -1  
$EndComp
$Comp
L device:R R13
U 1 1 5C3661D6
P 3900 2800
F 0 "R13" H 3970 2846 50  0000 L CNN
F 1 "75K" H 3970 2755 50  0000 L CNN
F 2 "Resistors_THT:R_Axial_DIN0207_L6.3mm_D2.5mm_P10.16mm_Horizontal" V 3830 2800 50  0001 C CNN
F 3 "~" H 3900 2800 50  0001 C CNN
	1    3900 2800
	1    0    0    -1  
$EndComp
$Comp
L device:R R14
U 1 1 5C3661E0
P 3900 3200
F 0 "R14" H 3970 3246 50  0000 L CNN
F 1 "49.9K" H 3970 3155 50  0000 L CNN
F 2 "Resistors_THT:R_Axial_DIN0207_L6.3mm_D2.5mm_P10.16mm_Horizontal" V 3830 3200 50  0001 C CNN
F 3 "~" H 3900 3200 50  0001 C CNN
	1    3900 3200
	1    0    0    -1  
$EndComp
Wire Wire Line
	3900 2950 3900 3000
Connection ~ 3900 3000
Wire Wire Line
	3900 3000 3900 3050
Wire Wire Line
	3600 3550 3600 3600
Connection ~ 3600 3600
Wire Wire Line
	3600 3600 3600 3650
$Comp
L power:GND #PWR013
U 1 1 5C3661F0
P 3600 3950
F 0 "#PWR013" H 3600 3700 50  0001 C CNN
F 1 "GND" H 3605 3777 50  0000 C CNN
F 2 "" H 3600 3950 50  0001 C CNN
F 3 "" H 3600 3950 50  0001 C CNN
	1    3600 3950
	1    0    0    -1  
$EndComp
$Comp
L power:GND #PWR015
U 1 1 5C3661FA
P 3900 3350
F 0 "#PWR015" H 3900 3100 50  0001 C CNN
F 1 "GND" H 3905 3177 50  0000 C CNN
F 2 "" H 3900 3350 50  0001 C CNN
F 3 "" H 3900 3350 50  0001 C CNN
	1    3900 3350
	1    0    0    -1  
$EndComp
Wire Wire Line
	4250 3150 4150 3150
Wire Wire Line
	4200 3000 4200 3050
Wire Wire Line
	4200 3050 4250 3050
Wire Wire Line
	3900 3000 4200 3000
$Comp
L power:GND #PWR017
U 1 1 5C366208
P 4550 2750
F 0 "#PWR017" H 4550 2500 50  0001 C CNN
F 1 "GND" H 4555 2577 50  0000 C CNN
F 2 "" H 4550 2750 50  0001 C CNN
F 3 "" H 4550 2750 50  0001 C CNN
	1    4550 2750
	-1   0    0    1   
$EndComp
Wire Wire Line
	3900 2650 3850 2650
Wire Wire Line
	4150 3150 4150 3600
Wire Wire Line
	3600 3600 4150 3600
Wire Wire Line
	3600 3250 3550 3250
Text GLabel 3850 2650 0    50   Input ~ 0
chargingSocket1
Text GLabel 4250 3350 3    50   Input ~ 0
chargingSocket1
Wire Wire Line
	4650 2750 4550 2750
Connection ~ 4550 2750
$Comp
L conn:USB_A J5
U 1 1 5C37B49B
P 6550 3200
F 0 "J5" H 6320 3097 50  0000 R CNN
F 1 "USB_A" H 6320 3188 50  0000 R CNN
F 2 "Connectors:USB_A_Vertical" H 6700 3150 50  0001 C CNN
F 3 "" H 6700 3150 50  0001 C CNN
	1    6550 3200
	-1   0    0    1   
$EndComp
$Comp
L device:R R17
U 1 1 5C37B4A5
P 5600 3450
F 0 "R17" H 5670 3496 50  0000 L CNN
F 1 "43K" H 5670 3405 50  0000 L CNN
F 2 "Resistors_THT:R_Axial_DIN0207_L6.3mm_D2.5mm_P10.16mm_Horizontal" V 5530 3450 50  0001 C CNN
F 3 "~" H 5600 3450 50  0001 C CNN
	1    5600 3450
	1    0    0    -1  
$EndComp
$Comp
L device:R R18
U 1 1 5C37B4AF
P 5600 3850
F 0 "R18" H 5670 3896 50  0000 L CNN
F 1 "51K" H 5670 3805 50  0000 L CNN
F 2 "Resistors_THT:R_Axial_DIN0207_L6.3mm_D2.5mm_P10.16mm_Horizontal" V 5530 3850 50  0001 C CNN
F 3 "~" H 5600 3850 50  0001 C CNN
	1    5600 3850
	1    0    0    -1  
$EndComp
$Comp
L device:R R21
U 1 1 5C37B4B9
P 5900 2850
F 0 "R21" H 5970 2896 50  0000 L CNN
F 1 "43K" H 5970 2805 50  0000 L CNN
F 2 "Resistors_THT:R_Axial_DIN0207_L6.3mm_D2.5mm_P10.16mm_Horizontal" V 5830 2850 50  0001 C CNN
F 3 "~" H 5900 2850 50  0001 C CNN
	1    5900 2850
	1    0    0    -1  
$EndComp
$Comp
L device:R R22
U 1 1 5C37B4C3
P 5900 3250
F 0 "R22" H 5970 3296 50  0000 L CNN
F 1 "51K" H 5970 3205 50  0000 L CNN
F 2 "Resistors_THT:R_Axial_DIN0207_L6.3mm_D2.5mm_P10.16mm_Horizontal" V 5830 3250 50  0001 C CNN
F 3 "~" H 5900 3250 50  0001 C CNN
	1    5900 3250
	1    0    0    -1  
$EndComp
Wire Wire Line
	5900 3000 5900 3050
Connection ~ 5900 3050
Wire Wire Line
	5900 3050 5900 3100
Wire Wire Line
	5600 3600 5600 3650
Connection ~ 5600 3650
Wire Wire Line
	5600 3650 5600 3700
$Comp
L power:GND #PWR019
U 1 1 5C37B4D3
P 5600 4000
F 0 "#PWR019" H 5600 3750 50  0001 C CNN
F 1 "GND" H 5605 3827 50  0000 C CNN
F 2 "" H 5600 4000 50  0001 C CNN
F 3 "" H 5600 4000 50  0001 C CNN
	1    5600 4000
	1    0    0    -1  
$EndComp
$Comp
L power:GND #PWR021
U 1 1 5C37B4DD
P 5900 3400
F 0 "#PWR021" H 5900 3150 50  0001 C CNN
F 1 "GND" H 5905 3227 50  0000 C CNN
F 2 "" H 5900 3400 50  0001 C CNN
F 3 "" H 5900 3400 50  0001 C CNN
	1    5900 3400
	1    0    0    -1  
$EndComp
Wire Wire Line
	6250 3200 6150 3200
Wire Wire Line
	6200 3050 6200 3100
Wire Wire Line
	6200 3100 6250 3100
Wire Wire Line
	5900 3050 6200 3050
$Comp
L power:GND #PWR023
U 1 1 5C37B4EB
P 6550 2800
F 0 "#PWR023" H 6550 2550 50  0001 C CNN
F 1 "GND" H 6555 2627 50  0000 C CNN
F 2 "" H 6550 2800 50  0001 C CNN
F 3 "" H 6550 2800 50  0001 C CNN
	1    6550 2800
	-1   0    0    1   
$EndComp
Wire Wire Line
	5900 2700 5850 2700
Wire Wire Line
	6150 3200 6150 3650
Wire Wire Line
	5600 3650 6150 3650
Wire Wire Line
	5600 3300 5550 3300
Text GLabel 5850 2700 0    50   Input ~ 0
chargingSocket1
Text GLabel 5550 3300 0    50   Input ~ 0
chargingSocket1
Text GLabel 6250 3400 3    50   Input ~ 0
chargingSocket1
Wire Wire Line
	6650 2800 6550 2800
Connection ~ 6550 2800
$Comp
L conn:USB_A J7
U 1 1 5C39F264
P 8550 3200
F 0 "J7" H 8320 3097 50  0000 R CNN
F 1 "USB_A" H 8320 3188 50  0000 R CNN
F 2 "Connectors:USB_A_Vertical" H 8700 3150 50  0001 C CNN
F 3 "" H 8700 3150 50  0001 C CNN
	1    8550 3200
	-1   0    0    1   
$EndComp
$Comp
L device:R R25
U 1 1 5C39F26E
P 7600 3450
F 0 "R25" H 7670 3496 50  0000 L CNN
F 1 "43K" H 7670 3405 50  0000 L CNN
F 2 "Resistors_THT:R_Axial_DIN0207_L6.3mm_D2.5mm_P10.16mm_Horizontal" V 7530 3450 50  0001 C CNN
F 3 "~" H 7600 3450 50  0001 C CNN
	1    7600 3450
	1    0    0    -1  
$EndComp
$Comp
L device:R R26
U 1 1 5C39F278
P 7600 3850
F 0 "R26" H 7670 3896 50  0000 L CNN
F 1 "51K" H 7670 3805 50  0000 L CNN
F 2 "Resistors_THT:R_Axial_DIN0207_L6.3mm_D2.5mm_P10.16mm_Horizontal" V 7530 3850 50  0001 C CNN
F 3 "~" H 7600 3850 50  0001 C CNN
	1    7600 3850
	1    0    0    -1  
$EndComp
$Comp
L device:R R29
U 1 1 5C39F282
P 7900 2850
F 0 "R29" H 7970 2896 50  0000 L CNN
F 1 "43K" H 7970 2805 50  0000 L CNN
F 2 "Resistors_THT:R_Axial_DIN0207_L6.3mm_D2.5mm_P10.16mm_Horizontal" V 7830 2850 50  0001 C CNN
F 3 "~" H 7900 2850 50  0001 C CNN
	1    7900 2850
	1    0    0    -1  
$EndComp
$Comp
L device:R R30
U 1 1 5C39F28C
P 7900 3250
F 0 "R30" H 7970 3296 50  0000 L CNN
F 1 "51K" H 7970 3205 50  0000 L CNN
F 2 "Resistors_THT:R_Axial_DIN0207_L6.3mm_D2.5mm_P10.16mm_Horizontal" V 7830 3250 50  0001 C CNN
F 3 "~" H 7900 3250 50  0001 C CNN
	1    7900 3250
	1    0    0    -1  
$EndComp
Wire Wire Line
	7900 3000 7900 3050
Connection ~ 7900 3050
Wire Wire Line
	7900 3050 7900 3100
Wire Wire Line
	7600 3600 7600 3650
Connection ~ 7600 3650
Wire Wire Line
	7600 3650 7600 3700
$Comp
L power:GND #PWR025
U 1 1 5C39F29C
P 7600 4000
F 0 "#PWR025" H 7600 3750 50  0001 C CNN
F 1 "GND" H 7605 3827 50  0000 C CNN
F 2 "" H 7600 4000 50  0001 C CNN
F 3 "" H 7600 4000 50  0001 C CNN
	1    7600 4000
	1    0    0    -1  
$EndComp
$Comp
L power:GND #PWR029
U 1 1 5C39F2A6
P 7900 3400
F 0 "#PWR029" H 7900 3150 50  0001 C CNN
F 1 "GND" H 7905 3227 50  0000 C CNN
F 2 "" H 7900 3400 50  0001 C CNN
F 3 "" H 7900 3400 50  0001 C CNN
	1    7900 3400
	1    0    0    -1  
$EndComp
Wire Wire Line
	8250 3200 8150 3200
Wire Wire Line
	8200 3050 8200 3100
Wire Wire Line
	8200 3100 8250 3100
Wire Wire Line
	7900 3050 8200 3050
$Comp
L power:GND #PWR032
U 1 1 5C39F2B4
P 8550 2800
F 0 "#PWR032" H 8550 2550 50  0001 C CNN
F 1 "GND" H 8555 2627 50  0000 C CNN
F 2 "" H 8550 2800 50  0001 C CNN
F 3 "" H 8550 2800 50  0001 C CNN
	1    8550 2800
	-1   0    0    1   
$EndComp
Wire Wire Line
	7900 2700 7850 2700
Wire Wire Line
	8150 3200 8150 3650
Wire Wire Line
	7600 3650 8150 3650
Wire Wire Line
	7600 3300 7550 3300
Text GLabel 7850 2700 0    50   Input ~ 0
chargingSocket1
Text GLabel 7550 3300 0    50   Input ~ 0
chargingSocket1
Text GLabel 8250 3400 3    50   Input ~ 0
chargingSocket1
Wire Wire Line
	8650 2800 8550 2800
Connection ~ 8550 2800
Wire Notes Line
	750  2550 9050 2550
Wire Notes Line
	9050 2550 9050 4300
Wire Notes Line
	9050 4300 700  4300
Wire Notes Line
	700  4300 700  2550
$Comp
L conn:USB_A J4
U 1 1 5C3D511A
P 4550 5150
F 0 "J4" H 4320 5047 50  0000 R CNN
F 1 "USB_A" H 4320 5138 50  0000 R CNN
F 2 "Connectors:USB_A_Vertical" H 4700 5100 50  0001 C CNN
F 3 "" H 4700 5100 50  0001 C CNN
	1    4550 5150
	-1   0    0    1   
$EndComp
$Comp
L device:R R11
U 1 1 5C3D5124
P 3600 5400
F 0 "R11" H 3670 5446 50  0000 L CNN
F 1 "75K" H 3670 5355 50  0000 L CNN
F 2 "Resistors_THT:R_Axial_DIN0207_L6.3mm_D2.5mm_P10.16mm_Horizontal" V 3530 5400 50  0001 C CNN
F 3 "~" H 3600 5400 50  0001 C CNN
	1    3600 5400
	1    0    0    -1  
$EndComp
$Comp
L device:R R12
U 1 1 5C3D512E
P 3600 5800
F 0 "R12" H 3670 5846 50  0000 L CNN
F 1 "49.9K" H 3670 5755 50  0000 L CNN
F 2 "Resistors_THT:R_Axial_DIN0207_L6.3mm_D2.5mm_P10.16mm_Horizontal" V 3530 5800 50  0001 C CNN
F 3 "~" H 3600 5800 50  0001 C CNN
	1    3600 5800
	1    0    0    -1  
$EndComp
$Comp
L device:R R15
U 1 1 5C3D5138
P 3900 4800
F 0 "R15" H 3970 4846 50  0000 L CNN
F 1 "75K" H 3970 4755 50  0000 L CNN
F 2 "Resistors_THT:R_Axial_DIN0207_L6.3mm_D2.5mm_P10.16mm_Horizontal" V 3830 4800 50  0001 C CNN
F 3 "~" H 3900 4800 50  0001 C CNN
	1    3900 4800
	1    0    0    -1  
$EndComp
$Comp
L device:R R16
U 1 1 5C3D5142
P 3900 5200
F 0 "R16" H 3970 5246 50  0000 L CNN
F 1 "49.9K" H 3970 5155 50  0000 L CNN
F 2 "Resistors_THT:R_Axial_DIN0207_L6.3mm_D2.5mm_P10.16mm_Horizontal" V 3830 5200 50  0001 C CNN
F 3 "~" H 3900 5200 50  0001 C CNN
	1    3900 5200
	1    0    0    -1  
$EndComp
Wire Wire Line
	3900 4950 3900 5000
Connection ~ 3900 5000
Wire Wire Line
	3900 5000 3900 5050
Wire Wire Line
	3600 5550 3600 5600
Connection ~ 3600 5600
Wire Wire Line
	3600 5600 3600 5650
$Comp
L power:GND #PWR014
U 1 1 5C3D5152
P 3600 5950
F 0 "#PWR014" H 3600 5700 50  0001 C CNN
F 1 "GND" H 3605 5777 50  0000 C CNN
F 2 "" H 3600 5950 50  0001 C CNN
F 3 "" H 3600 5950 50  0001 C CNN
	1    3600 5950
	1    0    0    -1  
$EndComp
$Comp
L power:GND #PWR016
U 1 1 5C3D515C
P 3900 5350
F 0 "#PWR016" H 3900 5100 50  0001 C CNN
F 1 "GND" H 3905 5177 50  0000 C CNN
F 2 "" H 3900 5350 50  0001 C CNN
F 3 "" H 3900 5350 50  0001 C CNN
	1    3900 5350
	1    0    0    -1  
$EndComp
Wire Wire Line
	4250 5150 4150 5150
Wire Wire Line
	4200 5000 4200 5050
Wire Wire Line
	4200 5050 4250 5050
Wire Wire Line
	3900 5000 4200 5000
$Comp
L power:GND #PWR018
U 1 1 5C3D516A
P 4550 4750
F 0 "#PWR018" H 4550 4500 50  0001 C CNN
F 1 "GND" H 4555 4577 50  0000 C CNN
F 2 "" H 4550 4750 50  0001 C CNN
F 3 "" H 4550 4750 50  0001 C CNN
	1    4550 4750
	-1   0    0    1   
$EndComp
Wire Wire Line
	3900 4650 3850 4650
Wire Wire Line
	4150 5150 4150 5600
Wire Wire Line
	3600 5600 4150 5600
Wire Wire Line
	3600 5250 3550 5250
Text GLabel 3850 4650 0    50   Input ~ 0
chargingSocket2
Text GLabel 3550 5250 0    50   Input ~ 0
chargingSocket2
Text GLabel 4250 5350 3    50   Input ~ 0
chargingSocket2
Wire Wire Line
	4650 4750 4550 4750
Connection ~ 4550 4750
$Comp
L conn:USB_A J6
U 1 1 5C3D517D
P 6550 5200
F 0 "J6" H 6320 5097 50  0000 R CNN
F 1 "USB_A" H 6320 5188 50  0000 R CNN
F 2 "Connectors:USB_A_Vertical" H 6700 5150 50  0001 C CNN
F 3 "" H 6700 5150 50  0001 C CNN
	1    6550 5200
	-1   0    0    1   
$EndComp
$Comp
L device:R R19
U 1 1 5C3D5187
P 5600 5450
F 0 "R19" H 5670 5496 50  0000 L CNN
F 1 "43K" H 5670 5405 50  0000 L CNN
F 2 "Resistors_THT:R_Axial_DIN0207_L6.3mm_D2.5mm_P10.16mm_Horizontal" V 5530 5450 50  0001 C CNN
F 3 "~" H 5600 5450 50  0001 C CNN
	1    5600 5450
	1    0    0    -1  
$EndComp
$Comp
L device:R R20
U 1 1 5C3D5191
P 5600 5850
F 0 "R20" H 5670 5896 50  0000 L CNN
F 1 "51K" H 5670 5805 50  0000 L CNN
F 2 "Resistors_THT:R_Axial_DIN0207_L6.3mm_D2.5mm_P10.16mm_Horizontal" V 5530 5850 50  0001 C CNN
F 3 "~" H 5600 5850 50  0001 C CNN
	1    5600 5850
	1    0    0    -1  
$EndComp
$Comp
L device:R R23
U 1 1 5C3D519B
P 5900 4850
F 0 "R23" H 5970 4896 50  0000 L CNN
F 1 "43K" H 5970 4805 50  0000 L CNN
F 2 "Resistors_THT:R_Axial_DIN0207_L6.3mm_D2.5mm_P10.16mm_Horizontal" V 5830 4850 50  0001 C CNN
F 3 "~" H 5900 4850 50  0001 C CNN
	1    5900 4850
	1    0    0    -1  
$EndComp
$Comp
L device:R R24
U 1 1 5C3D51A5
P 5900 5250
F 0 "R24" H 5970 5296 50  0000 L CNN
F 1 "51K" H 5970 5205 50  0000 L CNN
F 2 "Resistors_THT:R_Axial_DIN0207_L6.3mm_D2.5mm_P10.16mm_Horizontal" V 5830 5250 50  0001 C CNN
F 3 "~" H 5900 5250 50  0001 C CNN
	1    5900 5250
	1    0    0    -1  
$EndComp
Wire Wire Line
	5900 5000 5900 5050
Connection ~ 5900 5050
Wire Wire Line
	5900 5050 5900 5100
Wire Wire Line
	5600 5600 5600 5650
Connection ~ 5600 5650
Wire Wire Line
	5600 5650 5600 5700
$Comp
L power:GND #PWR020
U 1 1 5C3D51B5
P 5600 6000
F 0 "#PWR020" H 5600 5750 50  0001 C CNN
F 1 "GND" H 5605 5827 50  0000 C CNN
F 2 "" H 5600 6000 50  0001 C CNN
F 3 "" H 5600 6000 50  0001 C CNN
	1    5600 6000
	1    0    0    -1  
$EndComp
$Comp
L power:GND #PWR022
U 1 1 5C3D51BF
P 5900 5400
F 0 "#PWR022" H 5900 5150 50  0001 C CNN
F 1 "GND" H 5905 5227 50  0000 C CNN
F 2 "" H 5900 5400 50  0001 C CNN
F 3 "" H 5900 5400 50  0001 C CNN
	1    5900 5400
	1    0    0    -1  
$EndComp
Wire Wire Line
	6250 5200 6150 5200
Wire Wire Line
	6200 5050 6200 5100
Wire Wire Line
	6200 5100 6250 5100
Wire Wire Line
	5900 5050 6200 5050
$Comp
L power:GND #PWR024
U 1 1 5C3D51CD
P 6550 4800
F 0 "#PWR024" H 6550 4550 50  0001 C CNN
F 1 "GND" H 6555 4627 50  0000 C CNN
F 2 "" H 6550 4800 50  0001 C CNN
F 3 "" H 6550 4800 50  0001 C CNN
	1    6550 4800
	-1   0    0    1   
$EndComp
Wire Wire Line
	5900 4700 5850 4700
Wire Wire Line
	6150 5200 6150 5650
Wire Wire Line
	5600 5650 6150 5650
Wire Wire Line
	5600 5300 5550 5300
Text GLabel 5850 4700 0    50   Input ~ 0
chargingSocket2
Text GLabel 5550 5300 0    50   Input ~ 0
chargingSocket2
Text GLabel 6250 5400 3    50   Input ~ 0
chargingSocket2
Wire Wire Line
	6650 4800 6550 4800
Connection ~ 6550 4800
$Comp
L conn:USB_A J8
U 1 1 5C3D51E0
P 8550 5200
F 0 "J8" H 8320 5097 50  0000 R CNN
F 1 "USB_A" H 8320 5188 50  0000 R CNN
F 2 "Connectors:USB_A_Vertical" H 8700 5150 50  0001 C CNN
F 3 "" H 8700 5150 50  0001 C CNN
	1    8550 5200
	-1   0    0    1   
$EndComp
$Comp
L device:R R27
U 1 1 5C3D51EA
P 7600 5450
F 0 "R27" H 7670 5496 50  0000 L CNN
F 1 "43K" H 7670 5405 50  0000 L CNN
F 2 "Resistors_THT:R_Axial_DIN0207_L6.3mm_D2.5mm_P10.16mm_Horizontal" V 7530 5450 50  0001 C CNN
F 3 "~" H 7600 5450 50  0001 C CNN
	1    7600 5450
	1    0    0    -1  
$EndComp
$Comp
L device:R R28
U 1 1 5C3D51F4
P 7600 5850
F 0 "R28" H 7670 5896 50  0000 L CNN
F 1 "51K" H 7670 5805 50  0000 L CNN
F 2 "Resistors_THT:R_Axial_DIN0207_L6.3mm_D2.5mm_P10.16mm_Horizontal" V 7530 5850 50  0001 C CNN
F 3 "~" H 7600 5850 50  0001 C CNN
	1    7600 5850
	1    0    0    -1  
$EndComp
$Comp
L device:R R31
U 1 1 5C3D51FE
P 7900 4850
F 0 "R31" H 7970 4896 50  0000 L CNN
F 1 "43K" H 7970 4805 50  0000 L CNN
F 2 "Resistors_THT:R_Axial_DIN0207_L6.3mm_D2.5mm_P10.16mm_Horizontal" V 7830 4850 50  0001 C CNN
F 3 "~" H 7900 4850 50  0001 C CNN
	1    7900 4850
	1    0    0    -1  
$EndComp
$Comp
L device:R R32
U 1 1 5C3D5208
P 7900 5250
F 0 "R32" H 7970 5296 50  0000 L CNN
F 1 "51K" H 7970 5205 50  0000 L CNN
F 2 "Resistors_THT:R_Axial_DIN0207_L6.3mm_D2.5mm_P10.16mm_Horizontal" V 7830 5250 50  0001 C CNN
F 3 "~" H 7900 5250 50  0001 C CNN
	1    7900 5250
	1    0    0    -1  
$EndComp
Wire Wire Line
	7900 5000 7900 5050
Connection ~ 7900 5050
Wire Wire Line
	7900 5050 7900 5100
Wire Wire Line
	7600 5600 7600 5650
Connection ~ 7600 5650
Wire Wire Line
	7600 5650 7600 5700
$Comp
L power:GND #PWR026
U 1 1 5C3D5218
P 7600 6000
F 0 "#PWR026" H 7600 5750 50  0001 C CNN
F 1 "GND" H 7605 5827 50  0000 C CNN
F 2 "" H 7600 6000 50  0001 C CNN
F 3 "" H 7600 6000 50  0001 C CNN
	1    7600 6000
	1    0    0    -1  
$EndComp
$Comp
L power:GND #PWR030
U 1 1 5C3D5222
P 7900 5400
F 0 "#PWR030" H 7900 5150 50  0001 C CNN
F 1 "GND" H 7905 5227 50  0000 C CNN
F 2 "" H 7900 5400 50  0001 C CNN
F 3 "" H 7900 5400 50  0001 C CNN
	1    7900 5400
	1    0    0    -1  
$EndComp
Wire Wire Line
	8250 5200 8150 5200
Wire Wire Line
	8200 5050 8200 5100
Wire Wire Line
	8200 5100 8250 5100
Wire Wire Line
	7900 5050 8200 5050
$Comp
L power:GND #PWR033
U 1 1 5C3D5230
P 8550 4800
F 0 "#PWR033" H 8550 4550 50  0001 C CNN
F 1 "GND" H 8555 4627 50  0000 C CNN
F 2 "" H 8550 4800 50  0001 C CNN
F 3 "" H 8550 4800 50  0001 C CNN
	1    8550 4800
	-1   0    0    1   
$EndComp
Wire Wire Line
	7900 4700 7850 4700
Wire Wire Line
	8150 5200 8150 5650
Wire Wire Line
	7600 5650 8150 5650
Wire Wire Line
	7600 5300 7550 5300
Text GLabel 7850 4700 0    50   Input ~ 0
chargingSocket2
Text GLabel 7550 5300 0    50   Input ~ 0
chargingSocket2
Text GLabel 8250 5400 3    50   Input ~ 0
chargingSocket2
Wire Wire Line
	8650 4800 8550 4800
Connection ~ 8550 4800
Wire Notes Line
	750  4550 9050 4550
Wire Notes Line
	9050 4550 9050 6300
Wire Notes Line
	9050 6300 700  6300
Wire Notes Line
	700  6300 700  4550
$Comp
L device:LED D11
U 1 1 5C3EEEF7
P 3750 1450
F 0 "D11" V 3697 1528 50  0000 L CNN
F 1 "LED" V 3788 1528 50  0000 L CNN
F 2 "LED_THT:LED_D3.0mm" H 3750 1450 50  0001 C CNN
F 3 "~" H 3750 1450 50  0001 C CNN
	1    3750 1450
	0    1    1    0   
$EndComp
$Comp
L device:R R34
U 1 1 5C3EFACE
P 3750 1750
F 0 "R34" H 3820 1796 50  0000 L CNN
F 1 "490" H 3820 1705 50  0000 L CNN
F 2 "Resistors_THT:R_Axial_DIN0207_L6.3mm_D2.5mm_P10.16mm_Horizontal" V 3680 1750 50  0001 C CNN
F 3 "~" H 3750 1750 50  0001 C CNN
	1    3750 1750
	1    0    0    -1  
$EndComp
Wire Wire Line
	1000 1100 1150 1100
Connection ~ 1150 1100
Wire Wire Line
	950  1900 1150 1900
Wire Wire Line
	1150 1750 1150 1900
Wire Wire Line
	1150 1900 1450 1900
Wire Wire Line
	1450 1600 1450 1900
Connection ~ 1150 1900
Wire Wire Line
	1450 1900 1750 1900
Wire Wire Line
	1750 1300 1750 1900
Connection ~ 1450 1900
Wire Wire Line
	1750 1900 2250 1900
Wire Wire Line
	2250 1500 2250 1900
Connection ~ 1750 1900
Wire Wire Line
	2250 1900 2850 1900
Wire Wire Line
	2850 1900 2850 1600
Connection ~ 2250 1900
Wire Wire Line
	2850 1900 3250 1900
Wire Wire Line
	3250 1900 3250 1800
Connection ~ 2850 1900
Wire Wire Line
	3250 1900 3750 1900
Connection ~ 3250 1900
Wire Wire Line
	3200 1300 3250 1300
Wire Wire Line
	3250 1300 3250 1100
Wire Wire Line
	3250 1500 3250 1300
Connection ~ 3250 1300
Wire Wire Line
	3300 1300 3250 1300
Connection ~ 3750 1300
Wire Wire Line
	3750 1300 3800 1300
$Comp
L dc-dc:LM2576HVT-5 U2
U 1 1 5C462E7C
P 6450 1200
F 0 "U2" H 6450 1567 50  0000 C CNN
F 1 "LM2576HVT-5" H 6450 1476 50  0000 C CNN
F 2 "LM2576:LM2576-LM2576" H 6450 950 50  0001 L CIN
F 3 "http://www.ti.com/lit/ds/symlink/lm2576.pdf" H 6450 1200 50  0001 C CNN
	1    6450 1200
	1    0    0    -1  
$EndComp
$Comp
L device:L L2
U 1 1 5C462E86
P 7250 1300
F 0 "L2" V 7440 1300 50  0000 C CNN
F 1 "100mH" V 7349 1300 50  0000 C CNN
F 2 "Inductor_THT:L_Toroid_Vertical_L19.1mm_W8.1mm_P7.10mm_Bourns_5700" H 7250 1300 50  0001 C CNN
F 3 "~" H 7250 1300 50  0001 C CNN
	1    7250 1300
	0    -1   -1   0   
$EndComp
$Comp
L device:Polyfuse F2
U 1 1 5C462E90
P 7650 1300
F 0 "F2" V 7425 1300 50  0000 C CNN
F 1 "Polyfuse" V 7516 1300 50  0000 C CNN
F 2 "Fuse:Fuse_Littlefuse_395Series" H 7700 1100 50  0001 L CNN
F 3 "~" H 7650 1300 50  0001 C CNN
	1    7650 1300
	0    1    1    0   
$EndComp
$Comp
L device:D_Schottky D10
U 1 1 5C462E9A
P 7050 1450
F 0 "D10" V 7004 1529 50  0000 L CNN
F 1 "1N5822" V 7095 1529 50  0000 L CNN
F 2 "Diode_THT:D_DO-201_P15.24mm_Horizontal" H 7050 1450 50  0001 C CNN
F 3 "~" H 7050 1450 50  0001 C CNN
	1    7050 1450
	0    1    1    0   
$EndComp
$Comp
L device:C C2
U 1 1 5C462EA4
P 5350 1600
F 0 "C2" H 5465 1646 50  0000 L CNN
F 1 "100nF" H 5465 1555 50  0000 L CNN
F 2 "Capacitors_THT:C_Disc_D3.8mm_W2.6mm_P2.50mm" H 5388 1450 50  0001 C CNN
F 3 "~" H 5350 1600 50  0001 C CNN
	1    5350 1600
	1    0    0    -1  
$EndComp
$Comp
L device:CP C5
U 1 1 5C462EAE
P 7450 1650
F 0 "C5" H 7568 1696 50  0000 L CNN
F 1 "100µF" H 7568 1605 50  0000 L CNN
F 2 "Capacitor_THT:CP_Radial_D12.5mm_P7.50mm" H 7488 1500 50  0001 C CNN
F 3 "~" H 7450 1650 50  0001 C CNN
	1    7450 1650
	1    0    0    -1  
$EndComp
$Comp
L device:CP C3
U 1 1 5C462EB8
P 5650 1450
F 0 "C3" H 5768 1496 50  0000 L CNN
F 1 "100µF" H 5768 1405 50  0000 L CNN
F 2 "Capacitor_THT:CP_Radial_D12.5mm_P7.50mm" H 5688 1300 50  0001 C CNN
F 3 "~" H 5650 1450 50  0001 C CNN
	1    5650 1450
	1    0    0    -1  
$EndComp
$Comp
L power:GND #PWR03
U 1 1 5C462EC2
P 5150 1900
F 0 "#PWR03" H 5150 1650 50  0001 C CNN
F 1 "GND" V 5155 1772 50  0000 R CNN
F 2 "" H 5150 1900 50  0001 C CNN
F 3 "" H 5150 1900 50  0001 C CNN
	1    5150 1900
	0    1    1    0   
$EndComp
Wire Wire Line
	5950 1100 5650 1100
Wire Wire Line
	5650 1100 5650 1300
Wire Wire Line
	6950 1300 7050 1300
Wire Wire Line
	7050 1300 7100 1300
Connection ~ 7050 1300
Wire Wire Line
	6950 1100 7450 1100
Wire Wire Line
	5650 1100 5350 1100
Wire Wire Line
	5350 1100 5350 1450
Connection ~ 5650 1100
$Comp
L power:+12V #PWR04
U 1 1 5C462ED5
P 5200 1100
F 0 "#PWR04" H 5200 950 50  0001 C CNN
F 1 "+12V" V 5215 1228 50  0000 L CNN
F 2 "" H 5200 1100 50  0001 C CNN
F 3 "" H 5200 1100 50  0001 C CNN
	1    5200 1100
	0    -1   -1   0   
$EndComp
Text Notes 4850 650  0    50   ~ 0
chargingSocket2\n
Wire Wire Line
	7800 1300 7950 1300
Text GLabel 8000 1300 2    50   Input ~ 0
chargingSocket2
Wire Notes Line
	4850 650  4850 2000
Wire Notes Line
	4850 2000 8700 2000
Wire Notes Line
	8700 2000 8700 650 
Wire Notes Line
	8700 650  4850 650 
$Comp
L device:LED D12
U 1 1 5C462EE6
P 7950 1450
F 0 "D12" V 7897 1528 50  0000 L CNN
F 1 "LED" V 7988 1528 50  0000 L CNN
F 2 "LED_THT:LED_D3.0mm" H 7950 1450 50  0001 C CNN
F 3 "~" H 7950 1450 50  0001 C CNN
	1    7950 1450
	0    1    1    0   
$EndComp
$Comp
L device:R R35
U 1 1 5C462EF0
P 7950 1750
F 0 "R35" H 8020 1796 50  0000 L CNN
F 1 "490" H 8020 1705 50  0000 L CNN
F 2 "Resistors_THT:R_Axial_DIN0207_L6.3mm_D2.5mm_P10.16mm_Horizontal" V 7880 1750 50  0001 C CNN
F 3 "~" H 7950 1750 50  0001 C CNN
	1    7950 1750
	1    0    0    -1  
$EndComp
Wire Wire Line
	5200 1100 5350 1100
Connection ~ 5350 1100
Wire Wire Line
	5150 1900 5350 1900
Wire Wire Line
	5350 1750 5350 1900
Wire Wire Line
	5350 1900 5650 1900
Wire Wire Line
	5650 1600 5650 1900
Connection ~ 5350 1900
Wire Wire Line
	5650 1900 5950 1900
Wire Wire Line
	5950 1300 5950 1900
Connection ~ 5650 1900
Wire Wire Line
	5950 1900 6450 1900
Wire Wire Line
	6450 1500 6450 1900
Connection ~ 5950 1900
Wire Wire Line
	6450 1900 7050 1900
Wire Wire Line
	7050 1900 7050 1600
Connection ~ 6450 1900
Wire Wire Line
	7050 1900 7450 1900
Wire Wire Line
	7450 1900 7450 1800
Connection ~ 7050 1900
Wire Wire Line
	7450 1900 7950 1900
Connection ~ 7450 1900
Wire Wire Line
	7400 1300 7450 1300
Wire Wire Line
	7450 1300 7450 1100
Wire Wire Line
	7450 1500 7450 1300
Connection ~ 7450 1300
Wire Wire Line
	7500 1300 7450 1300
Connection ~ 7950 1300
Wire Wire Line
	7950 1300 8000 1300
$Comp
L conn:Conn_01x02 J9
U 1 1 5C484655
P 850 7100
F 0 "J9" H 768 6775 50  0000 C CNN
F 1 "Conn_01x02" H 768 6866 50  0000 C CNN
F 2 "TerminalBlock:TerminalBlock_Altech_AK300-2_P5.00mm" H 850 7100 50  0001 C CNN
F 3 "~" H 850 7100 50  0001 C CNN
	1    850  7100
	-1   0    0    1   
$EndComp
Wire Wire Line
	1050 7100 1400 7100
Wire Wire Line
	1400 7100 1400 7200
Wire Wire Line
	1400 6900 1400 7100
Connection ~ 1400 7100
$Comp
L power:GND #PWR06
U 1 1 5C4FD8AF
P 2050 7500
F 0 "#PWR06" H 2050 7250 50  0001 C CNN
F 1 "GND" H 2055 7327 50  0000 C CNN
F 2 "" H 2050 7500 50  0001 C CNN
F 3 "" H 2050 7500 50  0001 C CNN
	1    2050 7500
	0    -1   -1   0   
$EndComp
$Comp
L power:+12V #PWR05
U 1 1 5C4FE1BD
P 2050 6600
F 0 "#PWR05" H 2050 6450 50  0001 C CNN
F 1 "+12V" V 2065 6728 50  0000 L CNN
F 2 "" H 2050 6600 50  0001 C CNN
F 3 "" H 2050 6600 50  0001 C CNN
	1    2050 6600
	0    1    1    0   
$EndComp
$Comp
L device:D_Schottky D4
U 1 1 5C4FECAE
P 1650 6750
F 0 "D4" V 1604 6829 50  0000 L CNN
F 1 "1N5822" V 1695 6829 50  0000 L CNN
F 2 "Diode_THT:D_DO-201_P15.24mm_Horizontal" H 1650 6750 50  0001 C CNN
F 3 "~" H 1650 6750 50  0001 C CNN
	1    1650 6750
	0    1    1    0   
$EndComp
Wire Wire Line
	1400 6600 1650 6600
Wire Wire Line
	1400 7500 1650 7500
$Comp
L device:D_Schottky D2
U 1 1 5C4FF10D
P 1400 6750
F 0 "D2" V 1354 6829 50  0000 L CNN
F 1 "1N5822" V 1445 6829 50  0000 L CNN
F 2 "Diode_THT:D_DO-201_P15.24mm_Horizontal" H 1400 6750 50  0001 C CNN
F 3 "~" H 1400 6750 50  0001 C CNN
	1    1400 6750
	0    1    1    0   
$EndComp
Connection ~ 1650 6600
Wire Wire Line
	1650 6600 2050 6600
$Comp
L device:D_Schottky D9
U 1 1 5C4FFE14
P 1650 7350
F 0 "D9" V 1604 7429 50  0000 L CNN
F 1 "1N5822" V 1695 7429 50  0000 L CNN
F 2 "Diode_THT:D_DO-201_P15.24mm_Horizontal" H 1650 7350 50  0001 C CNN
F 3 "~" H 1650 7350 50  0001 C CNN
	1    1650 7350
	0    1    1    0   
$EndComp
Connection ~ 1650 7500
Wire Wire Line
	1650 7500 2050 7500
$Comp
L device:D_Schottky D3
U 1 1 5C50038A
P 1400 7350
F 0 "D3" V 1354 7429 50  0000 L CNN
F 1 "1N5822" V 1445 7429 50  0000 L CNN
F 2 "Diode_THT:D_DO-201_P15.24mm_Horizontal" H 1400 7350 50  0001 C CNN
F 3 "~" H 1400 7350 50  0001 C CNN
	1    1400 7350
	0    1    1    0   
$EndComp
Wire Notes Line
	700  6450 700  7700
Wire Notes Line
	700  7600 2450 7600
Wire Notes Line
	2450 7700 2450 6450
Wire Notes Line
	2450 6450 700  6450
$Comp
L logo:OPEN_HARDWARE_2 LOGO1
U 1 1 5C51DA3D
P 10050 5950
F 0 "LOGO1" H 10516 6046 50  0000 L CNN
F 1 "OPEN_HARDWARE_2" H 10516 5955 50  0000 L CNN
F 2 "adafruit:adafruit-OSHWLOGO_TOL_0.2" H 10050 5950 50  0001 C CNN
F 3 "~" H 10050 5950 50  0001 C CNN
	1    10050 5950
	1    0    0    -1  
$EndComp
Wire Wire Line
	1650 6900 1650 7000
Wire Wire Line
	1350 7000 1650 7000
Connection ~ 1650 7000
Wire Wire Line
	1650 7000 1650 7200
Text GLabel 3550 3250 0    50   Input ~ 0
chargingSocket1
$EndSCHEMATC
